%!PS-Adobe-3.0 EPSF-3.0
%%Creator: cairo 1.16.0 (https://cairographics.org)
%%CreationDate: Tue Feb 09 22:23:04 2021
%%Pages: 1
%%DocumentData: Clean7Bit
%%LanguageLevel: 2
%%BoundingBox: 89 341 500 722
%%EndComments
%%BeginProlog
50 dict begin
/q { gsave } bind def
/Q { grestore } bind def
/cm { 6 array astore concat } bind def
/w { setlinewidth } bind def
/J { setlinecap } bind def
/j { setlinejoin } bind def
/M { setmiterlimit } bind def
/d { setdash } bind def
/m { moveto } bind def
/l { lineto } bind def
/c { curveto } bind def
/h { closepath } bind def
/re { exch dup neg 3 1 roll 5 3 roll moveto 0 rlineto
      0 exch rlineto 0 rlineto closepath } bind def
/S { stroke } bind def
/f { fill } bind def
/f* { eofill } bind def
/n { newpath } bind def
/W { clip } bind def
/W* { eoclip } bind def
/BT { } bind def
/ET { } bind def
/BDC { mark 3 1 roll /BDC pdfmark } bind def
/EMC { mark /EMC pdfmark } bind def
/cairo_store_point { /cairo_point_y exch def /cairo_point_x exch def } def
/Tj { show currentpoint cairo_store_point } bind def
/TJ {
  {
    dup
    type /stringtype eq
    { show } { -0.001 mul 0 cairo_font_matrix dtransform rmoveto } ifelse
  } forall
  currentpoint cairo_store_point
} bind def
/cairo_selectfont { cairo_font_matrix aload pop pop pop 0 0 6 array astore
    cairo_font exch selectfont cairo_point_x cairo_point_y moveto } bind def
/Tf { pop /cairo_font exch def /cairo_font_matrix where
      { pop cairo_selectfont } if } bind def
/Td { matrix translate cairo_font_matrix matrix concatmatrix dup
      /cairo_font_matrix exch def dup 4 get exch 5 get cairo_store_point
      /cairo_font where { pop cairo_selectfont } if } bind def
/Tm { 2 copy 8 2 roll 6 array astore /cairo_font_matrix exch def
      cairo_store_point /cairo_font where { pop cairo_selectfont } if } bind def
/g { setgray } bind def
/rg { setrgbcolor } bind def
/d1 { setcachedevice } bind def
/cairo_data_source {
  CairoDataIndex CairoData length lt
    { CairoData CairoDataIndex get /CairoDataIndex CairoDataIndex 1 add def }
    { () } ifelse
} def
/cairo_flush_ascii85_file { cairo_ascii85_file status { cairo_ascii85_file flushfile } if } def
/cairo_image { image cairo_flush_ascii85_file } def
/cairo_imagemask { imagemask cairo_flush_ascii85_file } def
%%EndProlog
%%BeginSetup
%%EndSetup
%%Page: 1 1
%%BeginPageSetup
%%PageBoundingBox: 89 341 500 722
%%EndPageSetup
q 89 341 411 381 rectclip
1 0 0 -1 0 842 cm q
0 g
214.121 497.945 m 214.121 498.688 168.938 490.824 149.91 474.367 c 141.793
 467.348 127.855 450.816 118.258 433.934 c 111.027 421.211 101.188 395.969
 96.109 377.109 c 92.727 364.551 92.363 361.973 91.504 344.309 c 91.164 
337.293 90.465 327.418 89.949 322.359 c 88.301 306.109 90.641 297.18 97.469
 293.695 c 100.879 291.957 106.918 291.75 118.496 292.977 c 122.414 293.391
 140.977 294.078 159.746 294.5 c 226.629 296 242.219 292.406 249.266 292.594
 c 249.266 292.594 282.414 291.301 329.672 291.176 c 374.723 291.059 l 378.422
 293.332 l 383.313 296.336 386.277 301.676 386.824 308.461 c 387.215 313.32
 l 390.293 312.859 l 391.988 312.605 395.902 312.094 398.996 311.719 c 402.09
 311.348 408.672 310.48 413.621 309.797 c 420.402 308.863 426.32 308.637
 437.621 308.875 c 451.516 309.168 453.063 309.344 458.621 311.234 c 474.754
 316.719 486.895 326.375 493.113 338.672 c 497.313 346.973 500.047 361.328
 499.152 370.391 c 497.984 382.238 491.086 394.23 475.063 412.246 c 462.191
 426.727 458.273 428.75 429.438 435.836 c 418.91 438.426 410.598 439.883
 397.188 441.5 c 376.859 443.953 369.926 444.199 366.805 442.586 c 365.641
 441.984 364.598 441.926 364.289 441.891 c 361.547 441.574 361.324 441.758
 359.355 442.938 c 356.613 444.586 356.875 443.797 347.93 454.559 c 342.785
 460.746 336.777 468.094 334.582 470.891 c 328.469 478.668 319.621 484.422
 307.711 488.363 c 300.238 490.836 269.438 497.184 255.141 499.191 c 239.273
 501.422 229.957 501.141 214.121 497.945 c h
249.746 472.617 m 260.395 471.191 284.496 466.574 293.246 464.285 c 297.164
 463.258 302.902 461.156 305.996 459.613 c 310.777 457.227 312.238 456.008
 315.746 451.453 c 318.016 448.504 323.098 442.262 327.043 437.578 c 342.652
 419.039 344.879 414.375 349.551 390.434 c 351.203 381.977 354.238 366.52
 356.301 356.09 c 359.086 342 360.172 334.586 360.52 327.277 c 360.992 317.434
 l 323 317.934 l 292.211 318.34 282.703 318.715 272.816 319.906 c 266.109
 320.719 257.414 321.77 253.496 322.242 c 248.648 322.832 237.625 322.969
 218.996 322.668 c 163.398 321.781 122.543 320.785 119.699 320.25 c 116.777
 319.699 l 117.254 323.379 l 117.516 325.402 118.063 333.301 118.465 340.934
 c 118.867 348.563 119.395 356.496 119.633 358.559 c 120.672 367.551 127.738
 389.219 136.422 410.023 c 140.664 420.188 151.422 437.098 159.895 446.906
 c 164 451.664 169.566 455.48 175.871 457.859 c 214.098 472.289 229.383 
475.34 249.746 472.617 c h
386.367 415.547 m 407.129 413.004 413.512 411.898 427.23 408.477 c 435.125
 406.508 443.145 404.141 445.043 403.219 c 450.852 400.41 464.676 384.133
 470.281 373.508 c 472.508 369.285 472.602 368.77 472.117 363.434 c 471.512
 356.77 469.559 350.762 466.836 347.191 c 464.102 343.605 457.945 339.699
 451.496 337.457 c 446.613 335.758 444.902 335.563 434.941 335.574 c 428.063
 335.582 419.754 336.152 413.105 337.07 c 396.633 339.352 389.762 340.148
 388.152 339.969 c 386.867 339.828 386.578 340.551 385.801 345.809 c 385.316
 349.105 384.184 354.844 383.289 358.559 c 382.391 362.27 380.668 371.215
 379.457 378.434 c 378.246 385.652 376.73 393.918 376.082 396.809 c 374.359
 404.496 371.898 414.566 371.465 415.699 c 370.957 417.02 374.664 416.98
 386.367 415.547 c h
151.094 276.398 m 149.84 276.027 147.816 274.68 146.594 273.402 c 144.598
 271.32 144.363 270.563 144.293 265.98 c 144.223 261.273 143.883 260.254
 139.965 252.945 c 134.301 242.391 133.418 239.656 133.426 232.773 c 133.434
 224.539 135.18 220.91 142.465 213.977 c 149.148 207.613 153.156 205.875
 157.699 207.375 c 162.48 208.953 165.5 213.887 164.605 218.664 c 164.234
 220.629 162.719 222.621 158.555 226.598 c 155.5 229.52 152.996 232.469 
152.996 233.152 c 152.996 233.84 155.055 238.332 157.57 243.137 c 165.359
 258.02 166.578 263.887 163.234 270.422 c 160.699 275.379 155.789 277.797
 151.094 276.398 c h
344.063 266.254 m 341.852 265.055 338.996 260.227 338.996 257.688 c 338.996
 253.605 343.539 247.422 355.805 234.809 c 364.156 226.215 364.43 224.258
 359.086 211.359 c 353.168 197.082 352.121 189.703 354.41 178.34 c 357.281
 164.09 364.195 157.359 374.223 159.055 c 377.824 159.66 381.438 163.398
 382.164 167.258 c 382.801 170.656 380.703 175.039 377.473 177.059 c 374.414
 178.969 374.18 179.57 373.711 186.809 c 373.34 192.563 373.461 193.16 376.684
 201.434 c 382.363 216.016 382.668 217.273 382.383 224.902 c 382.016 234.613
 380.129 238.176 369.438 249.328 c 364.836 254.129 359.902 259.695 358.477
 261.695 c 357.051 263.695 354.973 265.805 353.855 266.383 c 351.234 267.734
 346.684 267.676 344.063 266.254 c h
189.004 263.789 m 182.355 260.227 179.641 252.262 182.898 245.875 c 183.762
 244.184 186.848 240.496 189.758 237.68 c 196.504 231.152 198.121 228.57
 198.121 224.367 c 198.121 219.676 195.938 215.313 190.574 209.285 c 180.719
 198.219 178.293 193.047 178.273 183.059 c 178.254 173.324 180.105 168.895
 187.047 162.059 c 192.977 156.215 199.285 152.68 203.762 152.688 c 210.68
 152.695 215.914 155.859 218.434 161.555 c 221.668 168.871 217.043 177.727
 209.098 179.422 c 206.375 180.004 204.488 182.191 205.086 184.07 c 205.348
 184.895 207.746 188.004 210.414 190.977 c 219.648 201.277 223.148 208.238
 225.039 220.063 c 225.477 222.809 225.609 226.746 225.328 228.809 c 224.637
 233.922 221.723 241.461 218.98 245.207 c 215.195 250.391 202.277 263.098
 199.707 264.172 c 196.336 265.582 192.063 265.43 189.004 263.789 c h
283.68 257.836 m 281.082 257.027 276.895 253.395 275.539 250.773 c 274.871
 249.48 274.324 246.805 274.324 244.828 c 274.324 240.25 276.227 236.977
 284.238 227.77 c 287.605 223.898 291.211 219.445 292.25 217.875 c 294.016
 215.207 294.086 214.762 293.301 211.105 c 292.27 206.301 290.301 201.754
 287.414 197.52 c 283.063 191.137 275.688 177.164 273.504 171.176 c 271.605
 165.961 271.227 163.676 270.934 155.684 c 270.387 140.695 272.754 132.59
 279.703 125.672 c 290.461 114.961 307.73 121.871 305.633 136.051 c 305.207
 138.941 304.465 140.184 301.43 143.121 c 297.746 146.688 l 297.746 152.656
 l 297.746 156.879 298.207 159.855 299.316 162.824 c 300.859 166.941 306.387
 177.367 309.117 181.301 c 316.785 192.352 321.633 207.309 320.824 217.41
 c 320.328 223.59 317.676 229.047 311.199 237.238 c 302.996 247.602 296.793
 254.77 294.617 256.395 c 292.492 257.98 286.625 258.75 283.68 257.836 c
 h
283.68 257.836 m f
Q Q
showpage
%%Trailer
end
%%EOF
